{
  "data": {
    "current_page": 1,
    "data": [
      {
        "product_pid": "P240800000095",
        "product_name": "Flower Vase"
      },
      {
        "product_pid": "P240800000096",
        "product_name": "Kit Kat"
      },
      {
        "product_pid": "P240800000097",
        "product_name": "Vaseline Lotion"
      },
      {
        "product_pid": "P240800000099",
        "product_name": "Vision Iron"
      },
      {
        "product_pid": "P240800000100",
        "product_name": "Naviforce Watch"
      },
      {
        "product_pid": "P240800000101",
        "product_name": "Calliope Curl Woody Brown bag"
      },
      {
        "product_pid": "P240800000107",
        "product_name": "Galaxy Z Flip 6"
      },
      {
        "product_pid": "P240800000108",
        "product_name": "Galaxy Z Flip 6"
      },
      {
        "product_pid": "P240800000109",
        "product_name": "Lenovo IdeaPad 1 AMD Ryzen 5 7520U 14\" FHD Laptop 8GB DDR5 RAM 256GB SSD with 2 Years warranty"
      },
      {
        "product_pid": "P240800000112",
        "product_name": "stuffed doll"
      }

    ],
    "first_page_url": "http://163.47.146.233:3010/her-power-api/api/frontend/products-peginate?page=1",
    "from": 1,
    "last_page": 6,
    "last_page_url": "http://163.47.146.233:3010/her-power-api/api/frontend/products-peginate?page=6",
    "links": [
      {
        "url": null,
        "label": "&laquo; Previous",
        "active": false
      },
      {
        "url": "http://163.47.146.233:3010/her-power-api/api/frontend/products-peginate?page=1",
        "label": "1",
        "active": true
      },
      {
        "url": "http://163.47.146.233:3010/her-power-api/api/frontend/products-peginate?page=2",
        "label": "2",
        "active": false
      },
      {
        "url": "http://163.47.146.233:3010/her-power-api/api/frontend/products-peginate?page=3",
        "label": "3",
        "active": false
      },
      {
        "url": "http://163.47.146.233:3010/her-power-api/api/frontend/products-peginate?page=4",
        "label": "4",
        "active": false
      },
      {
        "url": "http://163.47.146.233:3010/her-power-api/api/frontend/products-peginate?page=5",
        "label": "5",
        "active": false
      },
      {
        "url": "http://163.47.146.233:3010/her-power-api/api/frontend/products-peginate?page=6",
        "label": "6",
        "active": false
      },
      {
        "url": "http://163.47.146.233:3010/her-power-api/api/frontend/products-peginate?page=2",
        "label": "Next &raquo;",
        "active": false
      }
    ],
    "next_page_url": "http://163.47.146.233:3010/her-power-api/api/frontend/products-peginate?page=2",
    "path": "http://163.47.146.233:3010/her-power-api/api/frontend/products-peginate",
    "per_page": 10,
    "prev_page_url": null,
    "to": 10,
    "total": 93
  },
  "code": 200,
  "message": "Data fatch successfully."
}
